{
	"comment" : "Test dataset for Stefania's long stave, master only",
	"input" : {
		"segment_map" : {
			"0" : 3,
			"1" : 3,
			"2" : 3,
			"3" : 3,
			"4" : 1,
			"5" : 1,
			"6" : 1,
			"7" : 1,
			"8" : 2,
			"9" : 2,
			"a" : 2,
			"b" : 2,
			"c" : 2,
			"d" : 0
		},

		"data" : [
			{
				"parser" : "ItsdaqSummaryHCC",
				"file"   : "itsdaq_hcc_summary.txt",
				"config" : {
					"for_each" : ["RegisterWrite", "RegisterRead", "Idle"],
					"idles_each" : 10
				}
			},
			{
				"parser" : "ItsdaqSummaryABC",
				"file"   : "itsdaq_abc_summary.txt",
				"config" : {
					"for_each" : ["RegisterWrite", "RegisterRead", "Idle"],
					"idles_each" : 10
				}
			}			
		]
	},

	"output" : [
		{
			"segment"	: 0,
			"file"		: "segment0_trickle.txt"
		},
		{
			"segment"	: 1,
			"file"		: "segment1_trickle.txt"
		},
		{
			"segment"	: 2,
			"file"		: "segment2_trickle.txt"
		},
		{
			"segment"	: 3,
			"file"		: "segment3_trickle.txt"
		}
	]
}