Register  1:       DCS1 060d0f0d
Register  2:       DCS2 100f100f
Register  3:       DCS3 00001303
Register  4:       DCS4 0000016c
Register  6:       DCS6 00020fff
Register  7:       DCS7 80070000
Register 32:    Config0 00000700
Register 33:    Config1 00000004
Register 34:    Config2 41800003
Register 35:    Config3 00042000
Register 36:    Config4 00000000
Register 37:    Config5 00000000
Register 38:    Config6 00000086
#Register 48:    SEUStat 00000000
#Register 49:   SEUStat2 00000000
#Register 50:   FuseStat 00003867
#Register 51:   ADC_Stat 0970016c
#Register 52:     LCBErr 00060000
#Register 63:        HPR 476c1971